{"langName": "Italiano",
 "nameEnglish": "Italian",
 "abbr": "DIO",
 "id": "ita_dio",
 "lang": "ita",
 "langNameEnglish": "Italian",
 "name": "Diodati 1649",
 "generator": "unbound",
 "filename": "italian_diodati_1649_utf8.txt",
 "dir": "ltr"}
