{"langName": "Espanol",
 "nameEnglish": "Spanish",
 "abbr": "RVR",
 "id": "spa_rvr",
 "lang": "spa",
 "langNameEnglish": "Spanish",
 "name": "Reina Valera 1909",
 "generator": "unbound",
 "filename": "spanish_reina_valera_1909_utf8.txt",
 "dir": "ltr"}
