{"langName": "Français",
 "nameEnglish": "French",
 "abbr": "MRT",
 "id": "fr_mrt",
 "lang": "fr",
 "langNameEnglish": "French",
 "name": "Martin 1744",
 "generator": "unbound",
 "filename": "martin1744.txt",
 "dir": "ltr"}
